NYC Housing Complaints
…
Number of Housing Complaints

df_NYC%>%
group_by(complaint_type) %>%
summarize(count = n()) %>%
arrange(desc(count))

## # A tibble: 22 x 2
##    complaint_type         count
##    <fct>                  <int>
##  1 HEAT/HOT WATER       1144631
##  2 HEATING               887869
##  3 PLUMBING              696090
##  4 GENERAL CONSTRUCTION  500863
##  5 UNSANITARY CONDITION  423028
##  6 PAINT - PLASTER       361258
##  7 PAINT/PLASTER         335622
##  8 ELECTRIC              299646
##  9 NONCONST              260890
## 10 DOOR/WINDOW           195696
## # ... with 12 more rows
…
